module gitlab.com/nodefluxio/fire/nodefluxapis

go 1.12

require (
	github.com/golang/protobuf v1.3.5 // indirect
	github.com/grpc-ecosystem/grpc-gateway v1.14.3 // indirect
	golang.org/x/net v0.0.0-20200324143707-d3edc9973b7e // indirect
	golang.org/x/sys v0.0.0-20200331124033-c3d80250170d // indirect
	golang.org/x/text v0.3.2 // indirect
	google.golang.org/genproto v0.0.0-20200401122417-09ab7b7031d2 // indirect
	google.golang.org/grpc v1.28.0 // indirect
)
